%YAML 1.1
%TAG !u! tag:unity3d.com,2011:
--- !u!1 &132100
GameObject:
  m_ObjectHideFlags: 0
  m_PrefabParentObject: {fileID: 0}
  m_PrefabInternal: {fileID: 100100000}
  serializedVersion: 5
  m_Component:
  - component: {fileID: 403092}
  - component: {fileID: 3393510}
  - component: {fileID: 2340746}
  m_Layer: 11
  m_Name: bullet (1)
  m_TagString: Untagged
  m_Icon: {fileID: 0}
  m_NavMeshLayer: 0
  m_StaticEditorFlags: 0
  m_IsActive: 1
--- !u!4 &403092
Transform:
  m_ObjectHideFlags: 1
  m_PrefabParentObject: {fileID: 0}
  m_PrefabInternal: {fileID: 100100000}
  m_GameObject: {fileID: 132100}
  m_LocalRotation: {x: 0.7071068, y: 0, z: 0, w: 0.7071068}
  m_LocalPosition: {x: 0, y: 0, z: 0}
  m_LocalScale: {x: 1, y: 1, z: 1}
  m_Children: []
  m_Father: {fileID: 4000010412217408}
  m_RootOrder: 0
  m_LocalEulerAnglesHint: {x: 0, y: 0, z: 0}
--- !u!23 &2340746
MeshRenderer:
  m_ObjectHideFlags: 1
  m_PrefabParentObject: {fileID: 0}
  m_PrefabInternal: {fileID: 100100000}
  m_GameObject: {fileID: 132100}
  m_Enabled: 1
  m_CastShadows: 0
  m_ReceiveShadows: 0
  m_DynamicOccludee: 1
  m_MotionVectors: 1
  m_LightProbeUsage: 1
  m_ReflectionProbeUsage: 1
  m_Materials:
  - {fileID: 2100000, guid: 55d21989553a04b45bf27a3a8905417f, type: 2}
  m_StaticBatchInfo:
    firstSubMesh: 0
    subMeshCount: 0
  m_StaticBatchRoot: {fileID: 0}
  m_ProbeAnchor: {fileID: 0}
  m_LightProbeVolumeOverride: {fileID: 0}
  m_ScaleInLightmap: 1
  m_PreserveUVs: 0
  m_IgnoreNormalsForChartDetection: 0
  m_ImportantGI: 0
  m_StitchLightmapSeams: 0
  m_SelectedEditorRenderState: 3
  m_MinimumChartSize: 4
  m_AutoUVMaxDistance: 0.5
  m_AutoUVMaxAngle: 89
  m_LightmapParameters: {fileID: 0}
  m_SortingLayerID: 0
  m_SortingLayer: 0
  m_SortingOrder: 0
--- !u!33 &3393510
MeshFilter:
  m_ObjectHideFlags: 1
  m_PrefabParentObject: {fileID: 0}
  m_PrefabInternal: {fileID: 100100000}
  m_GameObject: {fileID: 132100}
  m_Mesh: {fileID: 4300002, guid: 87537c84d5c90ee47acca7d25014e6ed, type: 3}
--- !u!54 &5420760
Rigidbody:
  m_ObjectHideFlags: 1
  m_PrefabParentObject: {fileID: 0}
  m_PrefabInternal: {fileID: 100100000}
  m_GameObject: {fileID: 1000010710861650}
  serializedVersion: 2
  m_Mass: 0.02
  m_Drag: 0
  m_AngularDrag: 0.05
  m_UseGravity: 1
  m_IsKinematic: 0
  m_Interpolate: 0
  m_Constraints: 112
  m_CollisionDetection: 2
--- !u!114 &11410338
MonoBehaviour:
  m_ObjectHideFlags: 1
  m_PrefabParentObject: {fileID: 0}
  m_PrefabInternal: {fileID: 100100000}
  m_GameObject: {fileID: 1000010710861650}
  m_Enabled: 1
  m_EditorHideFlags: 0
  m_Script: {fileID: 11500000, guid: 0cd39039863a63e48ad1e9260ed01bc8, type: 3}
  m_Name: 
  m_EditorClassIdentifier: 
  delay: 3
--- !u!114 &11414782
MonoBehaviour:
  m_ObjectHideFlags: 1
  m_PrefabParentObject: {fileID: 0}
  m_PrefabInternal: {fileID: 100100000}
  m_GameObject: {fileID: 1000010710861650}
  m_Enabled: 1
  m_EditorHideFlags: 0
  m_Script: {fileID: 11500000, guid: 192cf5e148161f24ca871f4b201bccd9, type: 3}
  m_Name: 
  m_EditorClassIdentifier: 
  layermask:
    serializedVersion: 2
    m_Bits: 513
  decalObjects:
  - tag: Metal
    hitEffect: {fileID: 100000, guid: 89525715262953844a40648bc626df55, type: 2}
    decals:
    - {fileID: 183892, guid: 84f28c6a10dbe8148aaa8fe054515689, type: 2}
  - tag: Wood
    hitEffect: {fileID: 100000, guid: 72bfe83995b92e94fad5ba375db97947, type: 2}
    decals:
    - {fileID: 183892, guid: 57dda1262bff1c541a37c7eb3df8ff68, type: 2}
  - tag: Glass
    hitEffect: {fileID: 100000, guid: 96604447a5f8e9e4a834cba7d5fbd25d, type: 2}
    decals:
    - {fileID: 183892, guid: e90698275d0219e4197e3021925bd22f, type: 2}
  - tag: Concrete
    hitEffect: {fileID: 100000, guid: 623c02857372d0e4c9a8dc809104498c, type: 2}
    decals:
    - {fileID: 183892, guid: adcc07c1b4d949244958f04e8b4afad7, type: 2}
  - tag: Dirt
    hitEffect: {fileID: 100000, guid: 19077323f192c994da77079516c6f611, type: 2}
    decals:
    - {fileID: 183892, guid: 7dd479543444c5144b3c1966b17fca06, type: 2}
    - {fileID: 165142, guid: b62b4fc2cd5b8c546b387fa2ee56b37e, type: 2}
    - {fileID: 115440, guid: e92784863bb9a5c4084cf43e1844386f, type: 2}
    - {fileID: 163668, guid: ed6aff054fba40c44afd9720ff3c913b, type: 2}
    - {fileID: 155644, guid: 574f790ed6b88694897032b472cb87c1, type: 2}
  - tag: Barrel
    hitEffect: {fileID: 100000, guid: 89525715262953844a40648bc626df55, type: 2}
    decals:
    - {fileID: 152848, guid: e2c2f874f7e808a4bb99b90c5c0d3652, type: 2}
--- !u!114 &11435956
MonoBehaviour:
  m_ObjectHideFlags: 1
  m_PrefabParentObject: {fileID: 0}
  m_PrefabInternal: {fileID: 100100000}
  m_GameObject: {fileID: 1000010710861650}
  m_Enabled: 1
  m_EditorHideFlags: 0
  m_Script: {fileID: 11500000, guid: 19c789670a80b704eba4dfebed94a111, type: 3}
  m_Name: 
  m_EditorClassIdentifier: 
  openCloseEvents: 0
  openCloseWindow: 0
  selectedToolbar: 0
  comment: In this example we're not using the BodyLayer because the AI does not have
    a Ragdoll, so we can apply damage directly into the Capsulle Collider with the
    Layer Enemy
--- !u!1001 &100100000
Prefab:
  m_ObjectHideFlags: 1
  serializedVersion: 2
  m_Modification:
    m_TransformParent: {fileID: 0}
    m_Modifications:
    - target: {fileID: 0}
      propertyPath: tags.Array.size
      value: 3
      objectReference: {fileID: 0}
    - target: {fileID: 0}
      propertyPath: decalObjects.Array.size
      value: 6
      objectReference: {fileID: 0}
    - target: {fileID: 0}
      propertyPath: decalObjects.Array.data[5].decals.Array.size
      value: 1
      objectReference: {fileID: 0}
    - target: {fileID: 0}
      propertyPath: onRayCast.m_PersistentCalls.m_Calls.Array.size
      value: 1
      objectReference: {fileID: 0}
    - target: {fileID: 0}
      propertyPath: m_LocalScale.y
      value: 0.1
      objectReference: {fileID: 0}
    - target: {fileID: 0}
      propertyPath: tags.Array.data[0]
      value: Enemy
      objectReference: {fileID: 0}
    - target: {fileID: 0}
      propertyPath: tags.Array.data[1]
      value: Player
      objectReference: {fileID: 0}
    - target: {fileID: 0}
      propertyPath: damage.value
      value: 100
      objectReference: {fileID: 0}
    - target: {fileID: 0}
      propertyPath: m_Enabled
      value: 0
      objectReference: {fileID: 0}
    - target: {fileID: 0}
      propertyPath: destroyOnCollision
      value: 1
      objectReference: {fileID: 0}
    - target: {fileID: 0}
      propertyPath: m_LocalScale.x
      value: 0.1
      objectReference: {fileID: 0}
    - target: {fileID: 0}
      propertyPath: m_LocalScale.z
      value: 0.1
      objectReference: {fileID: 0}
    - target: {fileID: 0}
      propertyPath: delay
      value: 2
      objectReference: {fileID: 0}
    - target: {fileID: 0}
      propertyPath: layerToAffect.m_Bits
      value: 1
      objectReference: {fileID: 0}
    - target: {fileID: 0}
      propertyPath: method
      value: 3
      objectReference: {fileID: 0}
    - target: {fileID: 0}
      propertyPath: explosionRadius
      value: 20
      objectReference: {fileID: 0}
    - target: {fileID: 0}
      propertyPath: explosionForce
      value: 20
      objectReference: {fileID: 0}
    - target: {fileID: 0}
      propertyPath: timeToExplode
      value: 5
      objectReference: {fileID: 0}
    - target: {fileID: 0}
      propertyPath: m_Autodestruct
      value: 0
      objectReference: {fileID: 0}
    - target: {fileID: 0}
      propertyPath: m_IsTrigger
      value: 0
      objectReference: {fileID: 0}
    - target: {fileID: 0}
      propertyPath: m_IsKinematic
      value: 0
      objectReference: {fileID: 0}
    - target: {fileID: 0}
      propertyPath: m_Layer
      value: 11
      objectReference: {fileID: 0}
    - target: {fileID: 0}
      propertyPath: m_CollisionDetection
      value: 2
      objectReference: {fileID: 0}
    - target: {fileID: 0}
      propertyPath: damage.activeRagdoll
      value: 0
      objectReference: {fileID: 0}
    - target: {fileID: 0}
      propertyPath: onRayCast.m_PersistentCalls.m_Calls.Array.data[0].m_Target
      value: 
      objectReference: {fileID: 11414782}
    - target: {fileID: 0}
      propertyPath: onRayCast.m_PersistentCalls.m_Calls.Array.data[0].m_MethodName
      value: CreateDecal
      objectReference: {fileID: 0}
    - target: {fileID: 0}
      propertyPath: onRayCast.m_PersistentCalls.m_Calls.Array.data[0].m_Mode
      value: 0
      objectReference: {fileID: 0}
    - target: {fileID: 0}
      propertyPath: onRayCast.m_PersistentCalls.m_Calls.Array.data[0].m_Arguments.m_ObjectArgumentAssemblyTypeName
      value: UnityEngine.Object, UnityEngine
      objectReference: {fileID: 0}
    - target: {fileID: 0}
      propertyPath: layerMask.m_Bits
      value: 513
      objectReference: {fileID: 0}
    - target: {fileID: 0}
      propertyPath: m_UseGravity
      value: 1
      objectReference: {fileID: 0}
    - target: {fileID: 0}
      propertyPath: damage.ignoreDefense
      value: 1
      objectReference: {fileID: 0}
    - target: {fileID: 0}
      propertyPath: layermask.m_Bits
      value: 513
      objectReference: {fileID: 0}
    - target: {fileID: 0}
      propertyPath: decalObjects.Array.data[5].tag
      value: Barrel
      objectReference: {fileID: 0}
    - target: {fileID: 0}
      propertyPath: decalObjects.Array.data[5].hitEffect
      value: 
      objectReference: {fileID: 100000, guid: 89525715262953844a40648bc626df55, type: 2}
    - target: {fileID: 0}
      propertyPath: tags.Array.data[2]
      value: Barrel
      objectReference: {fileID: 0}
    - target: {fileID: 0}
      propertyPath: decalObjects.Array.data[5].decals.Array.data[1]
      value: 
      objectReference: {fileID: 165142, guid: b62b4fc2cd5b8c546b387fa2ee56b37e, type: 2}
    - target: {fileID: 0}
      propertyPath: decalObjects.Array.data[5].decals.Array.data[2]
      value: 
      objectReference: {fileID: 115440, guid: e92784863bb9a5c4084cf43e1844386f, type: 2}
    - target: {fileID: 0}
      propertyPath: decalObjects.Array.data[5].decals.Array.data[3]
      value: 
      objectReference: {fileID: 163668, guid: ed6aff054fba40c44afd9720ff3c913b, type: 2}
    - target: {fileID: 0}
      propertyPath: decalObjects.Array.data[5].decals.Array.data[4]
      value: 
      objectReference: {fileID: 155644, guid: 574f790ed6b88694897032b472cb87c1, type: 2}
    - target: {fileID: 0}
      propertyPath: decalObjects.Array.data[5].decals.Array.data[0]
      value: 
      objectReference: {fileID: 152848, guid: e2c2f874f7e808a4bb99b90c5c0d3652, type: 2}
    - target: {fileID: 0}
      propertyPath: damage.attackName
      value: projectile
      objectReference: {fileID: 0}
    - target: {fileID: 0}
      propertyPath: forceMultiplier
      value: 3
      objectReference: {fileID: 0}
    - target: {fileID: 0}
      propertyPath: comment
      value: In this example we're not using the BodyLayer because the AI does not
        have a Ragdoll, so we can apply damage directly into the Capsulle Collider
        with the Layer Enemy
      objectReference: {fileID: 0}
    m_RemovedComponents: []
  m_ParentPrefab: {fileID: 0}
  m_RootGameObject: {fileID: 1000010710861650}
  m_IsPrefabParent: 1
--- !u!1 &1000010710861650
GameObject:
  m_ObjectHideFlags: 0
  m_PrefabParentObject: {fileID: 0}
  m_PrefabInternal: {fileID: 100100000}
  serializedVersion: 5
  m_Component:
  - component: {fileID: 4000010412217408}
  - component: {fileID: 5420760}
  - component: {fileID: 136000013964212268}
  - component: {fileID: 114000010787565436}
  - component: {fileID: 96000012070667944}
  - component: {fileID: 11410338}
  - component: {fileID: 11414782}
  - component: {fileID: 11435956}
  m_Layer: 11
  m_Name: vMobileBullet
  m_TagString: Untagged
  m_Icon: {fileID: 0}
  m_NavMeshLayer: 0
  m_StaticEditorFlags: 0
  m_IsActive: 1
--- !u!4 &4000010412217408
Transform:
  m_ObjectHideFlags: 1
  m_PrefabParentObject: {fileID: 0}
  m_PrefabInternal: {fileID: 100100000}
  m_GameObject: {fileID: 1000010710861650}
  m_LocalRotation: {x: -0.13052592, y: -0, z: -0, w: 0.9914449}
  m_LocalPosition: {x: 0, y: 0, z: 0}
  m_LocalScale: {x: 0.1, y: 0.1, z: 0.1}
  m_Children:
  - {fileID: 403092}
  m_Father: {fileID: 0}
  m_RootOrder: 0
  m_LocalEulerAnglesHint: {x: 0, y: 0, z: 0}
--- !u!96 &96000012070667944
TrailRenderer:
  serializedVersion: 2
  m_ObjectHideFlags: 1
  m_PrefabParentObject: {fileID: 0}
  m_PrefabInternal: {fileID: 100100000}
  m_GameObject: {fileID: 1000010710861650}
  m_Enabled: 1
  m_CastShadows: 0
  m_ReceiveShadows: 0
  m_DynamicOccludee: 1
  m_MotionVectors: 1
  m_LightProbeUsage: 1
  m_ReflectionProbeUsage: 0
  m_Materials:
  - {fileID: 2100000, guid: 7a9c81640763dc54b9638d56c3c7f72a, type: 2}
  m_StaticBatchInfo:
    firstSubMesh: 0
    subMeshCount: 0
  m_StaticBatchRoot: {fileID: 0}
  m_ProbeAnchor: {fileID: 0}
  m_LightProbeVolumeOverride: {fileID: 0}
  m_ScaleInLightmap: 1
  m_PreserveUVs: 0
  m_IgnoreNormalsForChartDetection: 0
  m_ImportantGI: 0
  m_StitchLightmapSeams: 0
  m_SelectedEditorRenderState: 3
  m_MinimumChartSize: 4
  m_AutoUVMaxDistance: 0.5
  m_AutoUVMaxAngle: 89
  m_LightmapParameters: {fileID: 0}
  m_SortingLayerID: 0
  m_SortingLayer: 0
  m_SortingOrder: 0
  m_Time: 1
  m_Parameters:
    serializedVersion: 2
    widthMultiplier: 1
    widthCurve:
      serializedVersion: 2
      m_Curve:
      - serializedVersion: 2
        time: 0
        value: 0.02
        inSlope: 0
        outSlope: 0
        tangentMode: 0
      - serializedVersion: 2
        time: 1
        value: 0.15
        inSlope: 0
        outSlope: 0
        tangentMode: 0
      m_PreInfinity: 2
      m_PostInfinity: 2
      m_RotationOrder: 4
    colorGradient:
      serializedVersion: 2
      key0: {r: 1, g: 1, b: 1, a: 1}
      key1: {r: 1, g: 1, b: 1, a: 1}
      key2: {r: 1, g: 1, b: 1, a: 1}
      key3: {r: 1, g: 1, b: 1, a: 1}
      key4: {r: 1, g: 1, b: 1, a: 0}
      key5: {r: 0, g: 0, b: 0, a: 0}
      key6: {r: 0, g: 0, b: 0, a: 0}
      key7: {r: 0, g: 0, b: 0, a: 0}
      ctime0: 0
      ctime1: 16384
      ctime2: 32768
      ctime3: 49151
      ctime4: 65535
      ctime5: 0
      ctime6: 0
      ctime7: 0
      atime0: 0
      atime1: 16384
      atime2: 32768
      atime3: 49151
      atime4: 65535
      atime5: 0
      atime6: 0
      atime7: 0
      m_Mode: 0
      m_NumColorKeys: 5
      m_NumAlphaKeys: 5
    numCornerVertices: 0
    numCapVertices: 0
    alignment: 0
    textureMode: 0
    generateLightingData: 0
  m_MinVertexDistance: 0.1
  m_Autodestruct: 0
--- !u!114 &114000010787565436
MonoBehaviour:
  m_ObjectHideFlags: 1
  m_PrefabParentObject: {fileID: 0}
  m_PrefabInternal: {fileID: 100100000}
  m_GameObject: {fileID: 1000010710861650}
  m_Enabled: 1
  m_EditorHideFlags: 0
  m_Script: {fileID: 11500000, guid: 4586a0f34d379cb49ae69bc6c996c2c0, type: 3}
  m_Name: 
  m_EditorClassIdentifier: 
  bulletLifeSettings: {fileID: 0}
  bulletLife: 100
  debug: 0
  damage:
    damageValue: 0
    staminaBlockCost: 0
    staminaRecoveryDelay: 0
    ignoreDefense: 1
    activeRagdoll: 0
    sender: {fileID: 0}
    receiver: {fileID: 0}
    hitPosition: {x: 0, y: 0, z: 0}
    recoil_id: 0
    reaction_id: 0
    attackName: projectile
  forceMultiplier: 3
  destroyOnCast: 1
  onPassDamage:
    m_PersistentCalls:
      m_Calls: []
    m_TypeName: vProjectileControl+ProjectilePassDamage, Assembly-CSharp, Version=0.0.0.0,
      Culture=neutral, PublicKeyToken=null
  onCastCollider:
    m_PersistentCalls:
      m_Calls:
      - m_Target: {fileID: 11414782}
        m_MethodName: CreateDecal
        m_Mode: 0
        m_Arguments:
          m_ObjectArgument: {fileID: 0}
          m_ObjectArgumentAssemblyTypeName: UnityEngine.Object, UnityEngine
          m_IntArgument: 0
          m_FloatArgument: 0
          m_StringArgument: 
          m_BoolArgument: 0
        m_CallState: 2
    m_TypeName: vProjectileControl+ProjectileCastColliderEvent, Assembly-CSharp, Version=0.0.0.0,
      Culture=neutral, PublicKeyToken=null
  onDestroyProjectile:
    m_PersistentCalls:
      m_Calls: []
    m_TypeName: vProjectileControl+ProjectileCastColliderEvent, Assembly-CSharp, Version=0.0.0.0,
      Culture=neutral, PublicKeyToken=null
  damageByDistance: 0
  minDamage: 0
  maxDamage: 0
  DropOffStart: 8
  velocity: 580
  DropOffEnd: 50
  startPosition: {x: 0, y: 0, z: 0}
  hitLayer:
    serializedVersion: 2
    m_Bits: 4294967295
  ignoreTags: []
  shooterTransform: {fileID: 0}
--- !u!136 &136000013964212268
CapsuleCollider:
  m_ObjectHideFlags: 1
  m_PrefabParentObject: {fileID: 0}
  m_PrefabInternal: {fileID: 100100000}
  m_GameObject: {fileID: 1000010710861650}
  m_Material: {fileID: 0}
  m_IsTrigger: 0
  m_Enabled: 0
  m_Radius: 0.1
  m_Height: 0.1
  m_Direction: 2
  m_Center: {x: 0, y: 0, z: 0}
